module srsgoapi

go 1.21.3

require github.com/go-sql-driver/mysql v1.7.1

require github.com/swaggo/files v0.0.0-20220610200504-28940afbdbfe // indirect

require (
	github.com/KyleBanks/depth v1.2.1 // indirect
	github.com/PuerkitoBio/purell v1.2.1 // indirect
	github.com/PuerkitoBio/urlesc v0.0.0-20170810143723-de5bf2ad4578 // indirect
	github.com/cpuguy83/go-md2man/v2 v2.0.3 // indirect
	github.com/go-openapi/jsonpointer v0.20.1 // indirect
	github.com/go-openapi/jsonreference v0.20.3 // indirect
	github.com/go-openapi/spec v0.20.12 // indirect
	github.com/go-openapi/swag v0.22.5 // indirect
	github.com/josharian/intern v1.0.0 // indirect
	github.com/mailru/easyjson v0.7.7 // indirect
	github.com/russross/blackfriday/v2 v2.1.0 // indirect
	github.com/shurcooL/sanitized_anchor_name v1.0.0 // indirect
	github.com/swaggo/http-swagger v1.3.4
	github.com/swaggo/swag v1.16.2 // indirect
	github.com/urfave/cli/v2 v2.26.0 // indirect
	github.com/xrash/smetrics v0.0.0-20231213231151-1d8dd44e695e // indirect
	golang.org/x/net v0.19.0 // indirect
	golang.org/x/sys v0.15.0 // indirect
	golang.org/x/text v0.14.0 // indirect
	golang.org/x/tools v0.16.1 // indirect
	gopkg.in/yaml.v2 v2.4.0 // indirect
	gopkg.in/yaml.v3 v3.0.1 // indirect
	sigs.k8s.io/yaml v1.4.0 // indirect
)
